\relax 
\providecommand\hyper@newdestlabel[2]{}
\providecommand\HyperFirstAtBeginDocument{\AtBeginDocument}
\HyperFirstAtBeginDocument{\ifx\hyper@anchor\@undefined
\global\let\oldcontentsline\contentsline
\gdef\contentsline#1#2#3#4{\oldcontentsline{#1}{#2}{#3}}
\global\let\oldnewlabel\newlabel
\gdef\newlabel#1#2{\newlabelxx{#1}#2}
\gdef\newlabelxx#1#2#3#4#5#6{\oldnewlabel{#1}{{#2}{#3}}}
\AtEndDocument{\ifx\hyper@anchor\@undefined
\let\contentsline\oldcontentsline
\let\newlabel\oldnewlabel
\fi}
\fi}
\global\let\hyper@last\relax 
\gdef\HyperFirstAtBeginDocument#1{#1}
\providecommand\HyField@AuxAddToFields[1]{}
\providecommand\HyField@AuxAddToCoFields[2]{}
\providecommand \oddpage@label [2]{}
\@writefile{toc}{\contentsline {chapter}{\numberline {1}Parallel Systems -\/ Shortest Path}{1}{chapter.1}}
\@writefile{lof}{\addvspace {10\p@ }}
\@writefile{lot}{\addvspace {10\p@ }}
\newlabel{index}{{1}{1}{Parallel Systems -\/ Shortest Path}{chapter.1}{}}
\@writefile{toc}{\contentsline {section}{\numberline {1.1}Introduction}{1}{section.1.1}}
\newlabel{index_intro_sec}{{1.1}{1}{Introduction}{section.1.1}{}}
\@writefile{toc}{\contentsline {section}{\numberline {1.2}Compilation}{1}{section.1.2}}
\newlabel{index_Compilation}{{1.2}{1}{Compilation}{section.1.2}{}}
\@writefile{toc}{\contentsline {section}{\numberline {1.3}Usage}{1}{section.1.3}}
\newlabel{index_Usage}{{1.3}{1}{Usage}{section.1.3}{}}
\@writefile{toc}{\contentsline {chapter}{\numberline {2}Class project for the 2020 summer semester parallel systems course}{3}{chapter.2}}
\@writefile{lof}{\addvspace {10\p@ }}
\@writefile{lot}{\addvspace {10\p@ }}
\newlabel{md_readme}{{2}{3}{Class project for the 2020 summer semester parallel systems course}{chapter.2}{}}
\@writefile{toc}{\contentsline {chapter}{\numberline {3}File Index}{5}{chapter.3}}
\@writefile{lof}{\addvspace {10\p@ }}
\@writefile{lot}{\addvspace {10\p@ }}
\@writefile{toc}{\contentsline {section}{\numberline {3.1}File List}{5}{section.3.1}}
\@writefile{toc}{\contentsline {chapter}{\numberline {4}File Documentation}{7}{chapter.4}}
\@writefile{lof}{\addvspace {10\p@ }}
\@writefile{lot}{\addvspace {10\p@ }}
\@writefile{toc}{\contentsline {section}{\numberline {4.1}functions.\discretionary {\unhbox \voidb@x \hbox {\relax \fontsize  {7}{8}\selectfont  $\leftarrow \joinrel  \rhook $}}{}{}cpp File Reference}{7}{section.4.1}}
\newlabel{functions_8cpp}{{4.1}{7}{functions.\+cpp File Reference}{section.4.1}{}}
\@writefile{toc}{\contentsline {subsection}{\numberline {4.1.1}Function Documentation}{7}{subsection.4.1.1}}
\newlabel{functions_8cpp_ac7b1c196d5f43fa882c21f64cb045d35}{{4.1.1}{7}{Function Documentation}{subsection.4.1.1}{}}
\gdef \LT@i {\LT@entry 
    {3}{84.87059pt}\LT@entry 
    {3}{261.15404pt}}
\gdef \LT@ii {\LT@entry 
    {3}{84.87059pt}\LT@entry 
    {3}{255.16089pt}}
\@writefile{toc}{\contentsline {subsubsection}{\numberline {4.1.1.1}build\discretionary {\unhbox \voidb@x \hbox {\relax \fontsize  {7}{8}\selectfont  $\leftarrow \joinrel  \rhook $}}{}{}Graph()}{8}{subsubsection.4.1.1.1}}
\newlabel{functions_8cpp_a1ab4b74af2f532cc92827214f52a9ded}{{4.1.1.1}{8}{\texorpdfstring {build\+Graph()}{buildGraph()}}{table.4.1}{}}
\@writefile{toc}{\contentsline {subsubsection}{\numberline {4.1.1.2}min\discretionary {\unhbox \voidb@x \hbox {\relax \fontsize  {7}{8}\selectfont  $\leftarrow \joinrel  \rhook $}}{}{}Distance()}{8}{subsubsection.4.1.1.2}}
\newlabel{functions_8cpp_a0cdde0f8b4c14fa92c99fcdaedd0f46d}{{4.1.1.2}{8}{\texorpdfstring {min\+Distance()}{minDistance()}}{table.4.2}{}}
\@writefile{toc}{\contentsline {subsubsection}{\numberline {4.1.1.3}opencl\discretionary {\unhbox \voidb@x \hbox {\relax \fontsize  {7}{8}\selectfont  $\leftarrow \joinrel  \rhook $}}{}{}Parallel\discretionary {\unhbox \voidb@x \hbox {\relax \fontsize  {7}{8}\selectfont  $\leftarrow \joinrel  \rhook $}}{}{}Dijkstra()}{8}{subsubsection.4.1.1.3}}
\gdef \LT@iii {\LT@entry 
    {3}{84.87059pt}\LT@entry 
    {3}{309.60907pt}}
\gdef \LT@iv {\LT@entry 
    {3}{57.44807pt}\LT@entry 
    {3}{255.16089pt}}
\gdef \LT@v {\LT@entry 
    {3}{84.87059pt}\LT@entry 
    {3}{179.14856pt}}
\newlabel{functions_8cpp_a5dba266a87bf3049c7b40343686bd774}{{4.1.1.3}{9}{\texorpdfstring {opencl\+Parallel\+Dijkstra()}{openclParallelDijkstra()}}{table.4.3}{}}
\@writefile{toc}{\contentsline {subsubsection}{\numberline {4.1.1.4}parallel\discretionary {\unhbox \voidb@x \hbox {\relax \fontsize  {7}{8}\selectfont  $\leftarrow \joinrel  \rhook $}}{}{}Min\discretionary {\unhbox \voidb@x \hbox {\relax \fontsize  {7}{8}\selectfont  $\leftarrow \joinrel  \rhook $}}{}{}Distance()}{9}{subsubsection.4.1.1.4}}
\newlabel{functions_8cpp_aafbf065e4779c41c0cc4bff9782bf52d}{{4.1.1.4}{9}{\texorpdfstring {parallel\+Min\+Distance()}{parallelMinDistance()}}{table.4.4}{}}
\@writefile{toc}{\contentsline {subsubsection}{\numberline {4.1.1.5}print\discretionary {\unhbox \voidb@x \hbox {\relax \fontsize  {7}{8}\selectfont  $\leftarrow \joinrel  \rhook $}}{}{}Adjacency\discretionary {\unhbox \voidb@x \hbox {\relax \fontsize  {7}{8}\selectfont  $\leftarrow \joinrel  \rhook $}}{}{}Matrix()}{9}{subsubsection.4.1.1.5}}
\newlabel{functions_8cpp_a11d8ba66d57e98b2a35d6222d24e187c}{{4.1.1.5}{9}{\texorpdfstring {print\+Adjacency\+Matrix()}{printAdjacencyMatrix()}}{table.4.5}{}}
\@writefile{toc}{\contentsline {subsubsection}{\numberline {4.1.1.6}print\discretionary {\unhbox \voidb@x \hbox {\relax \fontsize  {7}{8}\selectfont  $\leftarrow \joinrel  \rhook $}}{}{}Solution()}{9}{subsubsection.4.1.1.6}}
\gdef \LT@vi {\LT@entry 
    {3}{84.87059pt}\LT@entry 
    {3}{180.14755pt}}
\gdef \LT@vii {\LT@entry 
    {3}{84.87059pt}\LT@entry 
    {3}{309.60907pt}}
\gdef \LT@viii {\LT@entry 
    {3}{84.87059pt}\LT@entry 
    {3}{309.60907pt}}
\newlabel{functions_8cpp_a930c50b643460985b2c98646843cb67b}{{4.1.1.6}{11}{\texorpdfstring {print\+Solution()}{printSolution()}}{table.4.6}{}}
\@writefile{toc}{\contentsline {subsubsection}{\numberline {4.1.1.7}sequential\discretionary {\unhbox \voidb@x \hbox {\relax \fontsize  {7}{8}\selectfont  $\leftarrow \joinrel  \rhook $}}{}{}Dijkstra()}{11}{subsubsection.4.1.1.7}}
\newlabel{functions_8cpp_afc5e284d3df58033e971b53e95162781}{{4.1.1.7}{11}{\texorpdfstring {sequential\+Dijkstra()}{sequentialDijkstra()}}{table.4.7}{}}
\@writefile{toc}{\contentsline {subsubsection}{\numberline {4.1.1.8}simple\discretionary {\unhbox \voidb@x \hbox {\relax \fontsize  {7}{8}\selectfont  $\leftarrow \joinrel  \rhook $}}{}{}Parallel\discretionary {\unhbox \voidb@x \hbox {\relax \fontsize  {7}{8}\selectfont  $\leftarrow \joinrel  \rhook $}}{}{}Dijkstra()}{11}{subsubsection.4.1.1.8}}
\@writefile{toc}{\contentsline {section}{\numberline {4.2}functions.\discretionary {\unhbox \voidb@x \hbox {\relax \fontsize  {7}{8}\selectfont  $\leftarrow \joinrel  \rhook $}}{}{}h File Reference}{12}{section.4.2}}
\newlabel{functions_8h}{{4.2}{12}{functions.\+h File Reference}{section.4.2}{}}
\newlabel{functions_8h_a3bd69fd389b0d57d03ec2e545c81d4a2}{{4.2}{12}{Functions}{section*.10}{}}
\newlabel{functions_8h_afb0dd3d02f6a790cc2a1b0f3b3d501a7}{{4.2}{12}{Functions}{section*.10}{}}
\newlabel{functions_8h_abba4f89d0af30ad867c4af65994356e6}{{4.2}{12}{Functions}{section*.10}{}}
\@writefile{toc}{\contentsline {subsection}{\numberline {4.2.1}Function Documentation}{12}{subsection.4.2.1}}
\newlabel{functions_8h_ac7b1c196d5f43fa882c21f64cb045d35}{{4.2.1}{12}{Function Documentation}{subsection.4.2.1}{}}
\@writefile{toc}{\contentsline {subsubsection}{\numberline {4.2.1.1}build\discretionary {\unhbox \voidb@x \hbox {\relax \fontsize  {7}{8}\selectfont  $\leftarrow \joinrel  \rhook $}}{}{}Graph()}{12}{subsubsection.4.2.1.1}}
\gdef \LT@ix {\LT@entry 
    {3}{84.87059pt}\LT@entry 
    {3}{261.15404pt}}
\gdef \LT@x {\LT@entry 
    {3}{84.87059pt}\LT@entry 
    {3}{309.60907pt}}
\gdef \LT@xi {\LT@entry 
    {3}{57.44807pt}\LT@entry 
    {3}{255.16089pt}}
\newlabel{functions_8h_a0cdde0f8b4c14fa92c99fcdaedd0f46d}{{4.2.1.1}{13}{\texorpdfstring {build\+Graph()}{buildGraph()}}{table.4.9}{}}
\@writefile{toc}{\contentsline {subsubsection}{\numberline {4.2.1.2}opencl\discretionary {\unhbox \voidb@x \hbox {\relax \fontsize  {7}{8}\selectfont  $\leftarrow \joinrel  \rhook $}}{}{}Parallel\discretionary {\unhbox \voidb@x \hbox {\relax \fontsize  {7}{8}\selectfont  $\leftarrow \joinrel  \rhook $}}{}{}Dijkstra()}{13}{subsubsection.4.2.1.2}}
\newlabel{functions_8h_a5dba266a87bf3049c7b40343686bd774}{{4.2.1.2}{13}{\texorpdfstring {opencl\+Parallel\+Dijkstra()}{openclParallelDijkstra()}}{table.4.10}{}}
\@writefile{toc}{\contentsline {subsubsection}{\numberline {4.2.1.3}parallel\discretionary {\unhbox \voidb@x \hbox {\relax \fontsize  {7}{8}\selectfont  $\leftarrow \joinrel  \rhook $}}{}{}Min\discretionary {\unhbox \voidb@x \hbox {\relax \fontsize  {7}{8}\selectfont  $\leftarrow \joinrel  \rhook $}}{}{}Distance()}{13}{subsubsection.4.2.1.3}}
\newlabel{functions_8h_a930c50b643460985b2c98646843cb67b}{{4.2.1.3}{13}{\texorpdfstring {parallel\+Min\+Distance()}{parallelMinDistance()}}{table.4.11}{}}
\gdef \LT@xii {\LT@entry 
    {3}{84.87059pt}\LT@entry 
    {3}{309.60907pt}}
\gdef \LT@xiii {\LT@entry 
    {3}{84.87059pt}\LT@entry 
    {3}{309.60907pt}}
\@writefile{toc}{\contentsline {subsubsection}{\numberline {4.2.1.4}sequential\discretionary {\unhbox \voidb@x \hbox {\relax \fontsize  {7}{8}\selectfont  $\leftarrow \joinrel  \rhook $}}{}{}Dijkstra()}{14}{subsubsection.4.2.1.4}}
\newlabel{functions_8h_afc5e284d3df58033e971b53e95162781}{{4.2.1.4}{14}{\texorpdfstring {sequential\+Dijkstra()}{sequentialDijkstra()}}{table.4.12}{}}
\@writefile{toc}{\contentsline {subsubsection}{\numberline {4.2.1.5}simple\discretionary {\unhbox \voidb@x \hbox {\relax \fontsize  {7}{8}\selectfont  $\leftarrow \joinrel  \rhook $}}{}{}Parallel\discretionary {\unhbox \voidb@x \hbox {\relax \fontsize  {7}{8}\selectfont  $\leftarrow \joinrel  \rhook $}}{}{}Dijkstra()}{14}{subsubsection.4.2.1.5}}
\@writefile{toc}{\contentsline {chapter}{Index}{15}{section*.11}}
